10.

a)
CustoL = 125+200=325
CustoC = 100+200=300

b)
Custo	Pa				Pb
Carlos	100+200=300		100
Luís	125				125+200=325

Ul = 325 - (p*125+(1-p)*325)
Uc = 300 - (p*300+(1-p)*100)

Ul = Uc <=> 200p = 200-200p <=> p=1/200
Uc = 200*1/2=100=Ul

c)
Ul(a) = 325-125=200
Uc(a) = 300-300=0
    100
L ------> C

d)
Ul = 325-(p*[125+100+100+200]+(1-p)*0)
Uc = 300-(p*0+(1-p)*[100+125+125+200])

Ul=Uc <=> 325-p*525 = 300-(1-p)*550 <=> 325-p*525 = 300-(-p*550+550) <=> 325-525*p = 550*p-250 <=> 575 = 1075*p <=> p = 575/1075 = 

Ul = 325-525p = 325-525*23/43 = 44,... = Uc


11.

a)

Ce1=8
Ce2=10

U	E1		E2
d1	8-4=4	10-6=4
d2	8-6=2	10-4=6
d3	8-8=0	10-3=7
d4	8-3=5	10-8=2

Nenhum tem utilidade negativa e nenhum é melhor ou igual para ambos os agentes que todos os outros.

b)
E1 propoe d4 e E2 propoe d3

c)
RiscoE1 = (Ue1(d4)-Ue1(d3)) / Ue1(d4) = (5-0)/5=1
RiscoE2 = (Ue2(d3)-Ue2(d4)) / Ue2(d3) = (7-2)/7 = 5/7-2

d) Propunha d2 pq é o que tem maior utilidade a seguir.


